{
    "key": "group_5b27f57ca67ba",
    "title": "Page Settings",
    "fields": [
        {
            "key": "field_5b27f5865c296",
            "label": "Show Footer Call To Action",
            "name": "show_footer_call_to_action",
            "type": "true_false",
            "instructions": "",
            "required": 0,
            "conditional_logic": 0,
            "wrapper": {
                "width": "",
                "class": "",
                "id": ""
            },
            "message": "Toggle this box to show\/hide the universal footer call to action bar on this page.",
            "default_value": 1,
            "ui": 0,
            "ui_on_text": "",
            "ui_off_text": ""
        }
    ],
    "location": [
        [
            {
                "param": "post_type",
                "operator": "==",
                "value": "page"
            }
        ]
    ],
    "menu_order": 6,
    "position": "normal",
    "style": "default",
    "label_placement": "top",
    "instruction_placement": "label",
    "hide_on_screen": "",
    "active": 1,
    "description": "",
    "modified": 1529345760
}