{
    "key": "group_5b034b30b2994",
    "title": "Post Authors",
    "fields": [
        {
            "key": "field_5b034b36f9141",
            "label": "Authors",
            "name": "post_authors",
            "type": "relationship",
            "instructions": "Select the author(s) of this post. If no author is selected then none will display on the post page.",
            "required": 0,
            "conditional_logic": 0,
            "wrapper": {
                "width": "",
                "class": "",
                "id": ""
            },
            "post_type": [
                "rny_staff"
            ],
            "taxonomy": [],
            "filters": [
                "search"
            ],
            "elements": [
                "featured_image"
            ],
            "min": "",
            "max": "",
            "return_format": "object"
        }
    ],
    "location": [
        [
            {
                "param": "post_type",
                "operator": "==",
                "value": "post"
            }
        ]
    ],
    "menu_order": 0,
    "position": "normal",
    "style": "default",
    "label_placement": "top",
    "instruction_placement": "label",
    "hide_on_screen": "",
    "active": 1,
    "description": "",
    "modified": 1526942556
}